<svg xmlns="http://www.w3.org/2000/svg" viewBox="7991 229.642 19.958 19.958">
  <defs>
    <style>
      .cls-1 {
        fill: #f7b100;
      }
    </style>
  </defs>
  <g id="Group_310" data-name="Group 310" transform="translate(7991 229.642)">
    <path id="Path_811" data-name="Path 811" class="cls-1" d="M4.486,9.122a.542.542,0,0,1,.5-.5H6.753a.542.542,0,0,1,.5.5v5.645l1.361-.3V6.955a.542.542,0,0,1,.5-.5h1.764a.542.542,0,0,1,.5.5v6.6c.454-.2.907-.353,1.361-.6V5.09a.542.542,0,0,1,.5-.5h1.764a.542.542,0,0,1,.5.5V11.34A14.141,14.141,0,0,0,19.5,6.9,10,10,0,0,0,0,9.979a10.373,10.373,0,0,0,1.562,5.393,20.185,20.185,0,0,0,2.873-.2V9.122Z"/>
    <path id="Path_812" data-name="Path 812" class="cls-1" d="M23.181,17.4a20.968,20.968,0,0,1-12.7,8.215,19.42,19.42,0,0,1-2.47.353,12.742,12.742,0,0,1-1.411.05A9.956,9.956,0,0,0,23.232,18.61,9.712,9.712,0,0,0,23.181,17.4Z" transform="translate(-3.274 -8.631)"/>
  </g>
</svg>
