<svg xmlns="http://www.w3.org/2000/svg" viewBox="9198 128 11 11">
  <defs>
    <style>
      .cls-1 {
        fill: #f7b100;
      }
    </style>
  </defs>
  <g id="Group_309" data-name="Group 309" transform="translate(7792 -3)">
    <rect id="Rectangle_114" data-name="Rectangle 114" class="cls-1" width="3" height="3" transform="translate(1406 131)"/>
    <rect id="Rectangle_119" data-name="Rectangle 119" class="cls-1" width="3" height="3" transform="translate(1406 135)"/>
    <rect id="Rectangle_122" data-name="Rectangle 122" class="cls-1" width="3" height="3" transform="translate(1406 139)"/>
    <rect id="Rectangle_115" data-name="Rectangle 115" class="cls-1" width="3" height="3" transform="translate(1410 131)"/>
    <rect id="Rectangle_118" data-name="Rectangle 118" class="cls-1" width="3" height="3" transform="translate(1410 135)"/>
    <rect id="Rectangle_121" data-name="Rectangle 121" class="cls-1" width="3" height="3" transform="translate(1410 139)"/>
    <rect id="Rectangle_116" data-name="Rectangle 116" class="cls-1" width="3" height="3" transform="translate(1414 131)"/>
    <rect id="Rectangle_117" data-name="Rectangle 117" class="cls-1" width="3" height="3" transform="translate(1414 135)"/>
    <rect id="Rectangle_120" data-name="Rectangle 120" class="cls-1" width="3" height="3" transform="translate(1414 139)"/>
  </g>
</svg>
