<svg xmlns="http://www.w3.org/2000/svg" viewBox="209 293 5 5">
  <defs>
    <style>
      .cls-1 {
        fill: #5a5a5a;
      }
    </style>
  </defs>
  <circle id="Ellipse_58" data-name="Ellipse 58" class="cls-1" cx="2.5" cy="2.5" r="2.5" transform="translate(209 293)"/>
</svg>
