<svg xmlns="http://www.w3.org/2000/svg" viewBox="9092 129 12 9">
  <defs>
    <style>
      .cls-1 {
        fill: #5a5a5a;
      }
    </style>
  </defs>
  <g id="Group_308" data-name="Group 308" transform="translate(7792 -3)">
    <rect id="Rectangle_111" data-name="Rectangle 111" class="cls-1" width="12" height="1" transform="translate(1300 132)"/>
    <rect id="Rectangle_112" data-name="Rectangle 112" class="cls-1" width="12" height="1" transform="translate(1300 136)"/>
    <rect id="Rectangle_113" data-name="Rectangle 113" class="cls-1" width="12" height="1" transform="translate(1300 140)"/>
  </g>
</svg>
