<svg xmlns="http://www.w3.org/2000/svg" viewBox="-487 614 18.954 18.954">
  <defs>
    <style>
      .cls-1 {
        fill: #5a5a5a;
      }
    </style>
  </defs>
  <path id="Path_796" data-name="Path 796" class="cls-1" d="M9.427,0a9.477,9.477,0,0,0,0,18.954A9.477,9.477,0,1,0,9.427,0Zm2.607,15.946c-.6.2-1.1.4-1.5.5a5.081,5.081,0,0,1-1.3.2,2.868,2.868,0,0,1-1.7-.5,1.821,1.821,0,0,1-.6-1.4v-.7c0-.2.1-.5.1-.8l.8-2.708c.2-.1.2-.4.3-.6,0-.2.1-.4.1-.6a1.169,1.169,0,0,0-.2-.7c-.2-.2-.5-.2-.9-.2a1.272,1.272,0,0,0-.6.1,4.343,4.343,0,0,0-.5.1l.2-.8a12.164,12.164,0,0,1,1.4-.5,6.9,6.9,0,0,1,1.3-.2,2.868,2.868,0,0,1,1.7.5,1.821,1.821,0,0,1,.6,1.4v.6a1.889,1.889,0,0,1-.2.8l-.8,2.708c-.1.2-.1.5-.2.7a3.546,3.546,0,0,1-.1.6.959.959,0,0,0,.2.7,1.554,1.554,0,0,0,.8.2,1.272,1.272,0,0,0,.6-.1c.2-.1.4-.1.5-.2Zm-.1-10.831a2.112,2.112,0,0,1-1.3.5,2.112,2.112,0,0,1-1.3-.5,1.588,1.588,0,0,1-.5-1.2,1.661,1.661,0,0,1,.5-1.2,2.112,2.112,0,0,1,1.3-.5,2.112,2.112,0,0,1,1.3.5,1.35,1.35,0,0,1,.5,1.2A2.084,2.084,0,0,1,11.934,5.115Z" transform="translate(-487 614)"/>
</svg>
