<svg xmlns="http://www.w3.org/2000/svg" viewBox="-583.904 544.102 12.898 12.898">
  <defs>
    <style>
      .cls-1 {
        fill: #47484d;
      }
    </style>
  </defs>
  <circle id="Ellipse_63" data-name="Ellipse 63" class="cls-1" cx="6.449" cy="6.449" r="6.449" transform="translate(-583.904 544.102)"/>
</svg>
