<?xml version="1.0" encoding="utf-8"?>
<!-- Generator: Adobe Illustrator 22.1.0, SVG Export Plug-In . SVG Version: 6.00 Build 0)  -->
<svg version="1.1" id="圖層_1" xmlns="http://www.w3.org/2000/svg" xmlns:xlink="http://www.w3.org/1999/xlink" x="0px" y="0px"
	 viewBox="0 0 30 30" style="enable-background:new 0 0 30 30;" xml:space="preserve">
<style type="text/css">
	.st0{fill:#F7B100;}
	.st1{fill:none;}
</style>
<g id="Group_78" transform="translate(-256)">
	<path id="Path_44" class="st0" d="M271.6,6.4h5l-4,6.1h4l-10.9,11.7l4.5-8.9h-2.9L271.6,6.4z"/>
	<g id="Ellipse_57" transform="translate(430 122)">
		<circle class="st1" cx="-159" cy="-107" r="14"/>
		<path class="st0" d="M-159-93c-7.7,0-14-6.3-14-14s6.3-14,14-14s14,6.3,14,14S-151.3-93-159-93z M-159-120c-7.2,0-13,5.8-13,13
			c0,7.2,5.8,13,13,13c7.2,0,13-5.8,13-13C-146-114.2-151.8-120-159-120z"/>
	</g>
</g>
</svg>
