<svg xmlns="http://www.w3.org/2000/svg" viewBox="616 2990.288 60.186 58.712">
  <defs>
    <style>
      .cls-1 {
        fill: #f7b100;
      }
    </style>
  </defs>
  <g id="Group_706" data-name="Group 706" transform="translate(615.988 2990.311)">
    <path id="Path_845" data-name="Path 845" class="cls-1" d="M50.833,4.5A17.862,17.862,0,0,0,33,22.333c0,4.4,2,8.48,3.967,12.374,1.638,3.275,3.166,6.369,3.166,9.026A3.572,3.572,0,0,0,43.7,47.3H57.966a3.572,3.572,0,0,0,3.567-3.567c0-2.8,1.565-5.9,3.2-9.171,1.929-3.858,3.931-7.825,3.931-12.228A17.862,17.862,0,0,0,50.833,4.5Zm7.133,39.233H43.7c0-7.024-7.133-14.266-7.133-21.4a14.266,14.266,0,1,1,28.533,0c0,7.133-7.133,14.157-7.133,21.4Zm0-28.533c0,1.237,3.021,18.379-7.133,17.833v7.133H47.266s1.674-12.156,5.35-15.722c-.109-.218-5.35,1.456-5.35,8.589,0,0-10.045-12.92,10.7-17.833Zm0,37.449a1.783,1.783,0,1,1,0,3.567,1.783,1.783,0,1,1,0,3.567H54.4a4.458,4.458,0,0,1-7.133,0H43.7a1.783,1.783,0,0,1,0-3.567,1.783,1.783,0,0,1,0-3.567,1.783,1.783,0,0,1,0-3.567H57.966a1.783,1.783,0,0,1,0,3.567Zm0,0" transform="translate(-20.982 -2.877)"/>
    <path id="Path_846" data-name="Path 846" class="cls-1" d="M128.123,7.446a1.707,1.707,0,0,1-1.347-.691,1.645,1.645,0,0,1,.4-2.293l5.9-4.185a1.646,1.646,0,0,1,1.892,2.693l-5.9,4.185A1.8,1.8,0,0,1,128.123,7.446Z" transform="translate(-80.439 0)"/>
    <path id="Path_847" data-name="Path 847" class="cls-1" d="M136.64,33.979a1.633,1.633,0,0,1-1.6-1.274,1.68,1.68,0,0,1,1.237-1.965l7.024-1.6a1.642,1.642,0,0,1,.728,3.2L137,33.943A1.238,1.238,0,0,1,136.64,33.979Z" transform="translate(-85.863 -18.526)"/>
    <path id="Path_848" data-name="Path 848" class="cls-1" d="M145.642,61.594a.8.8,0,0,1-.291-.036l-7.1-1.31a1.628,1.628,0,1,1,.582-3.2l7.1,1.31a1.633,1.633,0,0,1-.291,3.239Z" transform="translate(-87.077 -36.278)"/>
    <path id="Path_849" data-name="Path 849" class="cls-1" d="M138.307,86.272a1.541,1.541,0,0,1-1.092-.437l-5.35-4.84a1.649,1.649,0,1,1,2.22-2.438l5.35,4.84a1.66,1.66,0,0,1,.109,2.329A1.63,1.63,0,0,1,138.307,86.272Z" transform="translate(-83.526 -49.71)"/>
    <path id="Path_850" data-name="Path 850" class="cls-1" d="M21.237,7.464a1.8,1.8,0,0,1-.946-.291l-5.9-4.185a1.667,1.667,0,0,1-.4-2.293,1.667,1.667,0,0,1,2.293-.4l5.9,4.185a1.667,1.667,0,0,1,.4,2.293A1.707,1.707,0,0,1,21.237,7.464Z" transform="translate(-8.709 -0.018)"/>
    <path id="Path_851" data-name="Path 851" class="cls-1" d="M10.7,33.979a1.238,1.238,0,0,1-.364-.036l-7.06-1.6A1.642,1.642,0,1,1,4,29.139l7.024,1.6a1.662,1.662,0,0,1,1.237,1.965A1.593,1.593,0,0,1,10.7,33.979Z" transform="translate(-1.267 -18.526)"/>
    <path id="Path_852" data-name="Path 852" class="cls-1" d="M1.646,61.594a1.633,1.633,0,0,1-1.6-1.347,1.618,1.618,0,0,1,1.31-1.892l7.1-1.31a1.618,1.618,0,0,1,1.892,1.31,1.645,1.645,0,0,1-1.31,1.892l-7.1,1.31A.8.8,0,0,1,1.646,61.594Z" transform="translate(0 -36.278)"/>
    <path id="Path_853" data-name="Path 853" class="cls-1" d="M11.957,86.272a1.61,1.61,0,0,1-1.2-.546,1.661,1.661,0,0,1,.109-2.329l5.35-4.84a1.649,1.649,0,0,1,2.22,2.438l-5.35,4.84A1.693,1.693,0,0,1,11.957,86.272Z" transform="translate(-6.563 -49.71)"/>
  </g>
</svg>
