<svg xmlns="http://www.w3.org/2000/svg" viewBox="688 1862 20.202 22.658">
  <defs>
    <style>
      .cls-1 {
        fill: #58626f;
      }
    </style>
  </defs>
  <path id="Path_7" data-name="Path 7" class="cls-1" d="M17.131,3.009V0H0V19.588H2.947v3.07H20.2V3.009Zm-9.824,0h6.877V4.237H7.307ZM2.947,7.246H14.123V8.474H2.947Zm0,4.3H14.123v1.228H2.947Zm0,4.237H14.123v1.228H2.947ZM18.973,21.43H4.175V19.588H17.131V4.237h1.842V21.43Z" transform="translate(688 1862)"/>
</svg>
