<svg xmlns="http://www.w3.org/2000/svg" viewBox="687 1661 22.815 22">
  <defs>
    <style>
      .cls-1 {
        fill: #58626f;
      }
    </style>
  </defs>
  <g id="Group_48" data-name="Group 48" transform="translate(687 1661)">
    <path id="Path_37" data-name="Path 37" class="cls-1" d="M64,88.148v9.778h5.7V91.407h4.889v6.519h5.7V88.148L72.148,80Z" transform="translate(-60.741 -75.926)"/>
    <path id="Path_38" data-name="Path 38" class="cls-1" d="M11.407,0,0,11.407l1.151,1.151L11.407,2.3,21.664,12.558l1.151-1.151Z"/>
  </g>
</svg>
