<svg xmlns="http://www.w3.org/2000/svg" viewBox="474 3284 75.334 70.594">
  <defs>
    <style>
      .cls-1 {
        opacity: 0.45;
      }

      .cls-2, .cls-3 {
        fill: #40454b;
      }

      .cls-2 {
        opacity: 0.703;
      }
    </style>
  </defs>
  <g id="Group_588" data-name="Group 588" class="cls-1" transform="translate(10 3228)">
    <path id="Path_813" data-name="Path 813" class="cls-2" d="M14.025,60.058a20.723,20.723,0,0,1,1.5-7.807L2.712,46.5A35.264,35.264,0,0,0,16.082,89.651l7.34-11.968A21.264,21.264,0,0,1,14.025,60.058Z" transform="translate(464 31.239)"/>
    <path id="Path_814" data-name="Path 814" class="cls-3" d="M120.533,73.536A21.206,21.206,0,0,1,113.1,89.665l8.649,11.08a35.261,35.261,0,0,0,12.81-27.209,38.34,38.34,0,0,0-.374-5.236l-13.838,2.478A26.437,26.437,0,0,1,120.533,73.536Z" transform="translate(404.775 19.631)"/>
    <path id="Path_815" data-name="Path 815" class="cls-3" d="M26.194,26.554,18.059,15.1A35.089,35.089,0,0,0,7.4,28.1l12.81,5.75A21.187,21.187,0,0,1,26.194,26.554Z" transform="translate(460.06 47.959)"/>
    <path id="Path_816" data-name="Path 816" class="cls-3" d="M69.316,110c-.468.421-.982.795-1.449,1.169a21.166,21.166,0,0,1-22.627,1.309L37.9,124.446a35.28,35.28,0,0,0,38.616-2.2c.514-.374.982-.748,1.5-1.169Z" transform="translate(443.819 -2.574)"/>
    <path id="Path_817" data-name="Path 817" class="cls-2" d="M87.731,28.191A35.291,35.291,0,0,0,33.5,5.984l8.135,11.454a21.039,21.039,0,0,1,11.5-3.413A21.258,21.258,0,0,1,73.893,30.668c.14.608.234,1.216.327,1.823l13.838-2.478C87.965,29.406,87.824,28.8,87.731,28.191Z" transform="translate(446.161 56)"/>
  </g>
</svg>
